{
  "project_info": {
    "project_number": "790826260995",
    "firebase_url": "https://store-5ad00.firebaseio.com",
    "project_id": "store-5ad00",
    "storage_bucket": "store-5ad00.appspot.com"
  },
  "client": [
    {
      "client_info": {
        "mobilesdk_app_id": "1:790826260995:android:3bbe3ca5c45056e8fb0c36",
        "android_client_info": {
          "package_name": "com.example.storeadmin"
        }
      },
      "oauth_client": [
        {
          "client_id": "790826260995-snj2d3r5opi1h0atjfvgikll3k6vsh9q.apps.googleusercontent.com",
          "client_type": 3
        }
      ],
      "api_key": [
        {
          "current_key": "AIzaSyBNypYATAUJRtqmoQ6lt3lIJDbEPqXhuz4"
        }
      ],
      "services": {
        "appinvite_service": {
          "other_platform_oauth_client": [
            {
              "client_id": "790826260995-snj2d3r5opi1h0atjfvgikll3k6vsh9q.apps.googleusercontent.com",
              "client_type": 3
            }
          ]
        }
      }
    }
  ],
  "configuration_version": "1"
}